[gd_scene load_steps=4 format=2]

[ext_resource path="res://main.gd" type="Script" id=1]
[ext_resource path="res://effects/fader.gd" type="Script" id=2]
[ext_resource path="res://effects/waiter.gd" type="Script" id=3]

[node name="main" type="Node2D"]
script = ExtResource( 1 )
first_state = "start"

[node name="background" type="ColorRect" parent="."]
margin_right = 640.0
margin_bottom = 360.0
color = Color( 0.0627451, 0.0627451, 0.0627451, 1 )

[node name="state" type="Node2D" parent="."]

[node name="effects" type="CanvasLayer" parent="."]
pause_mode = 2
layer = 32

[node name="fader" type="ColorRect" parent="effects"]
margin_right = 640.0
margin_bottom = 360.0
color = Color( 0, 0, 0, 1 )
script = ExtResource( 2 )

[node name="tween" type="Tween" parent="effects/fader"]

[node name="waiter" type="Timer" parent="effects"]
process_mode = 0
one_shot = true
script = ExtResource( 3 )
