[gd_resource type="DynamicFont" load_steps=2 format=2]

[ext_resource path="res://assets/font/MunroExtended.ttf" type="DynamicFontData" id=1]

[resource]

resource_local_to_scene = true
size = 16
use_mipmaps = false
use_filter = false
font_data = ExtResource( 1 )
_sections_unfolded = [ "Extra Spacing", "Font", "Resource", "Settings" ]

