[gd_scene load_steps=3 format=2]

[ext_resource path="res://domains/commands/playSFX.gd" type="Script" id=1]

[sub_resource type="AudioStreamSample" id=1]

format = 0
loop_mode = 0
loop_begin = 0
loop_end = 0
mix_rate = 44100
stereo = false
data = PoolByteArray(  )

[node name="playSFX" type="Node2D" index="0"]

script = ExtResource( 1 )
sfx = null
wait = false
spatial = false

[node name="se_player" type="AudioStreamPlayer" parent="." index="0"]

stream = null
volume_db = 0.0
autoplay = false
mix_target = 0
bus = "Master"

[node name="se_player2D" type="AudioStreamPlayer2D" parent="." index="1"]

stream = SubResource( 1 )
volume_db = 0.0
autoplay = false
max_distance = 1920.0
attenuation = 1.0
bus = "Master"
area_mask = 1


