[gd_scene load_steps=2 format=2]

[ext_resource path="res://domains/commands/playBGM.gd" type="Script" id=1]

[node name="playBGM" type="Node2D" index="0"]

script = ExtResource( 1 )
audio_stream = null
fade_time = 1
seek_time = 0


