[gd_scene load_steps=2 format=2]

[ext_resource path="res://domains/commands/toggle_hidden.gd" type="Script" id=1]

[node name="toggle_hidden" type="Node2D" index="0"]

script = ExtResource( 1 )
body_name = ""
make_hidden = false


