[gd_scene format=2]

[node name="sprite" type="Sprite" index="0"]

offset = Vector2( 0, -96 )
_sections_unfolded = [ "Offset" ]

[node name="van" type="Polygon2D" parent="." index="0"]

position = Vector2( 0, 8 )
polygon = PoolVector2Array( -272, -16, -288, -32, -288, -96, -272, -112, -240, -112, -144, -208, 208, -208, 208, -208, 208, -32, 192, -16, 144, -16, 128, -32, 112, -32, 96, -16, -112, -16, -128, -32, -144, -32, -160, -16 )
uv = PoolVector2Array(  )
color = Color( 1, 1, 1, 1 )
vertex_colors = PoolColorArray(  )
offset = Vector2( 0, 0 )
antialiased = false
texture = null
texture_offset = Vector2( 0, 0 )
texture_scale = Vector2( 1, 1 )
texture_rotation_degrees = 0.0
invert_enable = false
invert_border = 100.0
_sections_unfolded = [ "Transform" ]

[node name="wheel_front" type="Polygon2D" parent="van" index="0"]

show_behind_parent = true
polygon = PoolVector2Array( -160, -16, -144, 0, -128, 0, -112, -16, -128, -32, -144, -32 )
uv = PoolVector2Array(  )
color = Color( 0.196078, 0.231373, 0.309804, 1 )
vertex_colors = PoolColorArray(  )
offset = Vector2( 0, 0 )
antialiased = false
texture = null
texture_offset = Vector2( 0, 0 )
texture_scale = Vector2( 1, 1 )
texture_rotation_degrees = 0.0
invert_enable = false
invert_border = 100.0
_sections_unfolded = [ "Visibility" ]

[node name="wheel_back" type="Polygon2D" parent="van" index="1"]

show_behind_parent = true
position = Vector2( 256, 0 )
polygon = PoolVector2Array( -160, -16, -144, 0, -128, 0, -112, -16, -128, -32, -144, -32 )
uv = PoolVector2Array(  )
color = Color( 0.196078, 0.231373, 0.309804, 1 )
vertex_colors = PoolColorArray(  )
offset = Vector2( 0, 0 )
antialiased = false
texture = null
texture_offset = Vector2( 0, 0 )
texture_scale = Vector2( 1, 1 )
texture_rotation_degrees = 0.0
invert_enable = false
invert_border = 100.0
_sections_unfolded = [ "Visibility" ]

[node name="window" type="Polygon2D" parent="van" index="2"]

polygon = PoolVector2Array( -176, -112, -192, -128, -128, -192, -32, -192, -32, -112 )
uv = PoolVector2Array(  )
color = Color( 0.554459, 0.672076, 0.699219, 1 )
vertex_colors = PoolColorArray(  )
offset = Vector2( 0, 0 )
antialiased = false
texture = null
texture_offset = Vector2( 0, 0 )
texture_scale = Vector2( 1, 1 )
texture_rotation_degrees = 0.0
invert_enable = false
invert_border = 100.0


