[gd_scene load_steps=3 format=2]

[ext_resource path="res://domains/body.tscn" type="PackedScene" id=1]
[ext_resource path="res://domains/sprites/hasha.tscn" type="PackedScene" id=2]

[node name="hasha" index="0" instance=ExtResource( 1 )]

collision_mask = 1

[node name="collision" parent="." index="0"]

polygon = PoolVector2Array( 32, 0, -32, 0, -32, -32, 32, -32 )

[node name="interaction_area" parent="." index="1"]

editor/display_folded = false
collision_mask = 12

[node name="shape" parent="interaction_area" index="0"]

polygon = PoolVector2Array( -32, 0, -32, -48, 32, -48, 32, 0 )

[node name="sprite" parent="appearance" index="0" instance=ExtResource( 2 )]

[node name="notif" parent="." index="3"]

position = Vector2( 0, -192 )


