[gd_scene load_steps=6 format=2]

[ext_resource path="res://domains/component.gd" type="Script" id=1]
[ext_resource path="res://domains/commands/set_flag.tscn" type="PackedScene" id=2]
[ext_resource path="res://domains/commands/stopBGM.tscn" type="PackedScene" id=3]
[ext_resource path="res://domains/commands/fade_overlay.tscn" type="PackedScene" id=4]
[ext_resource path="res://domains/commands/change_map.tscn" type="PackedScene" id=5]

[node name="start_ch1" type="Node2D" index="0"]

script = ExtResource( 1 )

[node name="set_time" parent="." index="0" instance=ExtResource( 2 )]

flag_name = "time"
value = 64800

[node name="follow" parent="." index="1" instance=ExtResource( 2 )]

flag_name = "hasha_following"
value = 1

[node name="chapter_1" parent="." index="2" instance=ExtResource( 2 )]

flag_type = 1
flag_name = "quest"
value = 2

[node name="stopBGM" parent="." index="3" instance=ExtResource( 3 )]

fade_time = 2.0

[node name="fade_overlay" parent="." index="4" instance=ExtResource( 4 )]

seconds = 2.0
wait = true

[node name="change_map" parent="." index="5" instance=ExtResource( 5 )]

map_id = "chapter_cover"
spawn_point = "initial"


