[gd_scene load_steps=4 format=2]

[ext_resource path="res://domains/body.gd" type="Script" id=1]
[ext_resource path="res://domains/appearance.tscn" type="PackedScene" id=2]
[ext_resource path="res://common/notif.tscn" type="PackedScene" id=3]

[node name="body" type="KinematicBody2D" index="0"]

input_pickable = false
collision_layer = 2
collision_mask = 7
collision/safe_margin = 0.08
script = ExtResource( 1 )
_sections_unfolded = [ "Collision" ]
hidden = false
locked_animation = false
default_state = 0
default_flipped = 0
interactable = 0
speed = 0

[node name="collision" type="CollisionPolygon2D" parent="." index="0"]

build_mode = 0
polygon = PoolVector2Array(  )

[node name="interaction_area" type="Area2D" parent="." index="1"]

editor/display_folded = true
input_pickable = true
gravity_vec = Vector2( 0, 1 )
gravity = 98.0
linear_damp = 0.1
angular_damp = 1.0
collision_layer = 0
collision_mask = 8
audio_bus_override = false
audio_bus_name = "Master"
_sections_unfolded = [ "Collision" ]

[node name="shape" type="CollisionPolygon2D" parent="interaction_area" index="0"]

build_mode = 0
polygon = PoolVector2Array(  )

[node name="appearance" parent="." index="2" instance=ExtResource( 2 )]

[node name="notif" parent="." index="3" instance=ExtResource( 3 )]

_sections_unfolded = [ "Transform", "Z Index" ]


