[gd_scene load_steps=4 format=2]

[ext_resource path="res://tests/graphical_settings.gd" type="Script" id=1]
[ext_resource path="res://common/menu.tscn" type="PackedScene" id=2]
[ext_resource path="res://common/menu_item.tscn" type="PackedScene" id=3]

[node name="graphical_settings" type="Node2D" index="0"]

script = ExtResource( 1 )

[node name="menu" parent="." index="0" instance=ExtResource( 2 )]

margin_left = 32.0
margin_top = 128.0
margin_right = 208.0
margin_bottom = 256.0
enable_cursor = true

[node name="options" parent="menu" index="3"]

margin_right = 160.0
margin_bottom = 112.0

[node name="back" parent="menu/options" index="0" instance=ExtResource( 3 )]

text = "Back"

[node name="menu_item" parent="menu/options" index="1"]

margin_top = 32.0
margin_right = 80.0
margin_bottom = 64.0
text = "Fullscreen Mode"

[node name="menu_item2" parent="menu/options" index="2"]

margin_top = 64.0
margin_right = 78.0
margin_bottom = 96.0
text = "Aspect 1x"


[editable path="menu"]
