[gd_scene load_steps=2 format=2]

[ext_resource path="res://tests/input_mapping.gd" type="Script" id=1]

[node name="input_mapping" type="Node2D" index="0"]

script = ExtResource( 1 )

[node name="bg" type="ColorRect" parent="." index="0"]

anchor_left = 0.0
anchor_top = 0.0
anchor_right = 0.0
anchor_bottom = 0.0
margin_right = 640.0
margin_bottom = 360.0
rect_pivot_offset = Vector2( 0, 0 )
rect_clip_content = false
mouse_filter = 0
mouse_default_cursor_shape = 0
size_flags_horizontal = 1
size_flags_vertical = 1
color = Color( 0.0627451, 0.0627451, 0.0627451, 1 )
_sections_unfolded = [ "Rect" ]

[node name="label" type="Label" parent="." index="1"]

anchor_left = 0.0
anchor_top = 0.0
anchor_right = 0.0
anchor_bottom = 0.0
margin_left = 224.0
margin_top = 128.0
margin_right = 304.0
margin_bottom = 160.0
rect_pivot_offset = Vector2( 0, 0 )
rect_clip_content = false
mouse_filter = 2
mouse_default_cursor_shape = 0
size_flags_horizontal = 1
size_flags_vertical = 4
text = "Pressed:"
valign = 1
percent_visible = 1.0
lines_skipped = 0
max_lines_visible = -1

[node name="input_ev" type="Label" parent="." index="2"]

anchor_left = 0.0
anchor_top = 0.0
anchor_right = 0.0
anchor_bottom = 0.0
margin_left = 304.0
margin_top = 64.0
margin_right = 496.0
margin_bottom = 224.0
rect_pivot_offset = Vector2( 0, 0 )
rect_clip_content = false
mouse_filter = 2
mouse_default_cursor_shape = 0
size_flags_horizontal = 1
size_flags_vertical = 4
text = "[BTN]"
valign = 1
autowrap = true
percent_visible = 1.0
lines_skipped = 0
max_lines_visible = -1


